<svg width="160" height="160" viewBox="0 0 160 160" fill="none" xmlns="http://www.w3.org/2000/svg">
<rect x="0.5" y="0.5" width="159" height="159" rx="79.5" fill="#8C4384"/>
<path d="M79.641 83L45 63L45 83L62.3205 93V113L96.9615 133L96.9615 113L79.641 103V83Z" fill="#FFD7F4"/>
<path fill-rule="evenodd" clip-rule="evenodd" d="M79.641 103L96.9615 113L106.962 106L89.641 96L79.641 103Z" fill="white"/>
<path d="M96.9615 113L96.9615 133L106.962 126L106.962 106L96.9615 113Z" fill="#FFFBFF"/>
<path d="M79.641 83V103L89.641 96V76L79.641 83Z" fill="#FFFBFF"/>
<path d="M45 63L44.7133 62.5904L44.5 62.7397V63H45ZM79.641 103H79.141V103.289L79.391 103.433L79.641 103ZM45 83H44.5V83.2887L44.75 83.433L45 83ZM96.9615 133L96.7115 133.433L96.9873 133.592L97.2483 133.41L96.9615 133ZM62.3205 113H61.8205V113.289L62.0705 113.433L62.3205 113ZM62.3205 93H62.8205V92.7113L62.5705 92.567L62.3205 93ZM55 56L55.25 55.567L54.9742 55.4077L54.7133 55.5904L55 56ZM89.641 76H90.141V75.7113L89.891 75.567L89.641 76ZM106.962 106H107.462V105.711L107.212 105.567L106.962 106ZM106.962 126L107.248 126.41L107.462 126.26V126H106.962ZM44.75 63.433L79.391 83.433L79.891 82.567L45.25 62.567L44.75 63.433ZM79.141 83V103H80.141V83H79.141ZM45.5 83L45.5 63H44.5L44.5 83H45.5ZM96.4615 113L96.4615 133H97.4615L97.4615 113H96.4615ZM97.2115 132.567L62.5705 112.567L62.0705 113.433L96.7115 133.433L97.2115 132.567ZM62.8205 113V93H61.8205V113H62.8205ZM62.5705 92.567L45.25 82.567L44.75 83.433L62.0705 93.433L62.5705 92.567ZM97.2115 112.567L79.891 102.567L79.391 103.433L96.7115 113.433L97.2115 112.567ZM54.75 56.433L89.391 76.433L89.891 75.567L55.25 55.567L54.75 56.433ZM89.141 76V96H90.141V76H89.141ZM106.462 106L106.462 126H107.462L107.462 106H106.462ZM107.212 105.567L89.891 95.567L89.391 96.433L106.712 106.433L107.212 105.567ZM54.7133 55.5904L44.7133 62.5904L45.2867 63.4096L55.2867 56.4096L54.7133 55.5904ZM89.3543 75.5904L79.3543 82.5904L79.9277 83.4096L89.9277 76.4096L89.3543 75.5904ZM89.3543 95.5904L79.3543 102.59L79.9277 103.41L89.9277 96.4096L89.3543 95.5904ZM106.675 105.59L96.6748 112.59L97.2483 113.41L107.248 106.41L106.675 105.59ZM106.675 125.59L96.6748 132.59L97.2483 133.41L107.248 126.41L106.675 125.59Z" fill="black"/>
<path d="M87 62L104.321 72L114.321 65L97 55L87 62Z" fill="white"/>
<path d="M104.321 72L87 62L87 102L104.321 112L104.321 72Z" fill="#FFD7F4"/>
<path d="M104.321 72L104.321 112L114.321 105L114.321 65L104.321 72Z" fill="#FFFBFF"/>
<path d="M87 62L86.7133 61.5904L86.5 61.7397V62H87ZM104.321 112L104.071 112.433L104.346 112.592L104.607 112.41L104.321 112ZM87 102H86.5V102.289L86.75 102.433L87 102ZM97 55L97.25 54.567L96.9742 54.4077L96.7133 54.5904L97 55ZM114.321 65H114.821V64.7113L114.571 64.567L114.321 65ZM114.321 105L114.607 105.41L114.821 105.26V105H114.321ZM86.75 62.433L104.071 72.433L104.571 71.567L87.25 61.567L86.75 62.433ZM103.821 72L103.821 112H104.821L104.821 72H103.821ZM104.571 111.567L87.25 101.567L86.75 102.433L104.071 112.433L104.571 111.567ZM87.5 102L87.5 62H86.5L86.5 102H87.5ZM96.75 55.433L114.071 65.433L114.571 64.567L97.25 54.567L96.75 55.433ZM113.821 65L113.821 105H114.821L114.821 65H113.821ZM114.034 64.5904L104.034 71.5904L104.607 72.4096L114.607 65.4096L114.034 64.5904ZM96.7133 54.5904L86.7133 61.5904L87.2867 62.4096L97.2867 55.4096L96.7133 54.5904ZM114.034 104.59L104.034 111.59L104.607 112.41L114.607 105.41L114.034 104.59Z" fill="black"/>
<path d="M62.3205 33L96.9615 53L106.962 46L72.3205 26L62.3205 33Z" fill="white"/>
<path d="M45 43L62.3205 53V40.2265L55 36L45 43Z" fill="white"/>
<path d="M96.9615 53L62.3205 33V40.2265V53L45 43L45 63L79.641 83V63L87 67.2487L89.641 68.7735L96.9615 73V53Z" fill="#FFD7F4"/>
<path d="M96.9615 53V73L106.962 66V46L96.9615 53Z" fill="#FFFBFF"/>
<path d="M79.641 63V83L87 77.8487V67.2487L79.641 63Z" fill="#FFFBFF"/>
<path d="M62.3205 33L62.0338 32.5904L61.8205 32.7397V33H62.3205ZM62.3205 53L62.0705 53.433L62.8205 53.866V53H62.3205ZM96.9615 73L96.7115 73.433L96.9873 73.5923L97.2483 73.4096L96.9615 73ZM45 43L44.7133 42.5904L44.5 42.7397V43H45ZM45 63H44.5V63.2887L44.75 63.433L45 63ZM79.641 83L79.391 83.433L79.6668 83.5923L79.9277 83.4096L79.641 83ZM79.641 63L79.891 62.567L79.141 62.134V63H79.641ZM106.962 46H107.462V45.7113L107.212 45.567L106.962 46ZM72.3205 26L72.5705 25.567L72.2947 25.4077L72.0338 25.5904L72.3205 26ZM106.962 66L107.248 66.4096L107.462 66.2603V66H106.962ZM55 36L55.25 35.567L54.9742 35.4077L54.7133 35.5904L55 36ZM89.641 68.7735L89.391 69.2065L89.641 68.7735ZM87 77.8487L87.2867 78.2583L87.5 78.109V77.8487H87ZM87 67.2487L87.25 66.8157L87 67.2487ZM97.2115 52.567L62.5705 32.567L62.0705 33.433L96.7115 53.433L97.2115 52.567ZM97.4615 73V53H96.4615V73H97.4615ZM44.5 43L44.5 63H45.5L45.5 43H44.5ZM44.75 63.433L79.391 83.433L79.891 82.567L45.25 62.567L44.75 63.433ZM80.141 83V63H79.141V83H80.141ZM44.75 43.433L62.0705 53.433L62.5705 52.567L45.25 42.567L44.75 43.433ZM107.212 45.567L72.5705 25.567L72.0705 26.433L106.712 46.433L107.212 45.567ZM107.462 66V46H106.462V66H107.462ZM106.675 65.5904L96.6748 72.5904L97.2483 73.4096L107.248 66.4096L106.675 65.5904ZM106.675 45.5904L96.6748 52.5904L97.2483 53.4096L107.248 46.4096L106.675 45.5904ZM72.0338 25.5904L62.0338 32.5904L62.6072 33.4096L72.6072 26.4096L72.0338 25.5904ZM54.7133 35.5904L44.7133 42.5904L45.2867 43.4096L55.2867 36.4096L54.7133 35.5904ZM89.391 69.2065L96.7115 73.433L97.2115 72.567L89.891 68.3405L89.391 69.2065ZM54.75 36.433L62.0705 40.6595L62.5705 39.7935L55.25 35.567L54.75 36.433ZM61.8205 33V40.2265H62.8205V33H61.8205ZM61.8205 40.2265V53H62.8205V40.2265H61.8205ZM86.7133 77.4391L79.3543 82.5904L79.9277 83.4096L87.2867 78.2583L86.7133 77.4391ZM79.391 63.433L86.75 67.6817L87.25 66.8157L79.891 62.567L79.391 63.433ZM86.75 67.6817L89.391 69.2065L89.891 68.3405L87.25 66.8157L86.75 67.6817ZM87.5 77.8487V67.2487H86.5V77.8487H87.5Z" fill="black"/>
<rect x="0.5" y="0.5" width="159" height="159" rx="79.5" stroke="black"/>
</svg>
