<svg width="160" height="160" viewBox="0 0 160 160" fill="none" xmlns="http://www.w3.org/2000/svg">
<g clip-path="url(#clip0_373_3067)">
<rect width="160" height="160" rx="80" fill="#8C4384"/>
<rect width="3.8985" height="76.0697" rx="1.94925" transform="matrix(0.866025 0.5 -0.866025 0.5 154.284 -2.00006)" fill="#FFD7F4" stroke="black"/>
<rect width="3.8985" height="45.7053" rx="1.94925" transform="matrix(0.866025 -0.5 -0.866025 -0.5 16.5819 71.2537)" fill="white" stroke="black"/>
<rect width="23.1494" height="23.1494" transform="matrix(0.86601 0.500028 3.18351e-05 1 60.9149 33.4224)" fill="#FFD7F4" stroke="black"/>
<rect width="23.1494" height="23.1494" transform="matrix(0.86601 -0.500028 -3.18351e-05 1 80.9629 44.9934)" fill="#FFFBFF" stroke="black"/>
<rect width="23.1494" height="23.1494" transform="matrix(0.866041 -0.499972 0.866041 0.499972 60.9149 33.429)" fill="white" stroke="black"/>
<rect width="3.8985" height="45.7053" rx="1.94925" transform="matrix(0.866025 0.5 -0.866025 0.5 68.6666 49.3552)" fill="#FFD7F4" stroke="black"/>
<rect width="3.8985" height="45.7053" rx="1.94925" transform="matrix(-0.866025 0.5 0.866025 0.5 93.2261 49.3552)" fill="white" stroke="black"/>
<rect width="23.1494" height="23.1494" transform="matrix(0.86601 0.500028 3.18351e-05 1 11.7236 69.5773)" fill="#FFD7F4" stroke="black"/>
<rect width="23.1494" height="23.1494" transform="matrix(0.86601 -0.500028 -3.18351e-05 1 31.7743 81.1482)" fill="#FFFBFF" stroke="black"/>
<rect width="23.1494" height="23.1494" transform="matrix(0.866041 -0.499972 0.866041 0.499972 11.7236 69.5837)" fill="white" stroke="black"/>
<rect width="23.1494" height="23.1494" transform="matrix(0.86601 0.500028 3.18351e-05 1 110.105 69.5773)" fill="#FFD7F4" stroke="black"/>
<rect width="23.1494" height="23.1494" transform="matrix(0.86601 -0.500028 -3.18351e-05 1 130.156 81.1482)" fill="#FFFBFF" stroke="black"/>
<rect width="23.1494" height="23.1494" transform="matrix(0.866041 -0.499972 0.866041 0.499972 110.105 69.5837)" fill="white" stroke="black"/>
<rect width="3.8985" height="45.7053" rx="1.94925" transform="matrix(0.866025 -0.5 -0.866025 -0.5 80.2412 108.97)" fill="white" stroke="black"/>
<rect width="3.8985" height="45.7053" rx="1.94925" transform="matrix(-0.866025 -0.5 0.866025 -0.5 82.6531 110.419)" fill="#FFD7F4" stroke="black"/>
<rect width="23.1494" height="23.1494" transform="matrix(0.86601 0.500028 3.18351e-05 1 60.9138 104.312)" fill="#FFD7F4" stroke="black"/>
<rect width="23.1494" height="23.1494" transform="matrix(0.86601 -0.500028 -3.18351e-05 1 80.9629 115.883)" fill="#FFFBFF" stroke="black"/>
<rect width="23.1494" height="23.1494" transform="matrix(0.866041 -0.499972 0.866041 0.499972 60.9138 104.318)" fill="white" stroke="black"/>
<rect width="3.8985" height="78.6596" rx="1.94925" transform="matrix(-0.866025 -0.5 0.866025 -0.5 4.9209 161.52)" fill="#FFD7F4" stroke="black"/>
<rect width="3.8985" height="45.7053" rx="1.94925" transform="matrix(-0.866025 0.5 0.866025 0.5 142.418 86.9697)" fill="white" stroke="black"/>
</g>
<rect x="0.5" y="0.5" width="159" height="159" rx="79.5" stroke="black"/>
<defs>
<clipPath id="clip0_373_3067">
<rect width="160" height="160" rx="80" fill="white"/>
</clipPath>
</defs>
</svg>
