<svg width="124" height="124" viewBox="0 0 124 124" fill="none" xmlns="http://www.w3.org/2000/svg">
<path d="M15.473 94.9001C12.6245 94.9001 10.3154 92.591 10.3154 89.7425V25.7884C10.3154 22.94 12.6245 20.6309 15.473 20.6309H108.31C111.158 20.6309 113.467 22.94 113.467 25.7884V89.7425C113.467 92.591 111.158 94.9001 108.31 94.9001M15.473 94.9001H26.8197M15.473 94.9001L15.473 96.9631C15.473 98.1025 16.3967 99.0261 17.536 99.0261H24.7567C25.896 99.0261 26.8197 98.1025 26.8197 96.9631V94.9001M108.31 94.9001H96.9628M108.31 94.9001L108.31 96.9631C108.31 98.1025 107.386 99.0261 106.246 99.0261H99.0259C97.8865 99.0261 96.9628 98.1025 96.9628 96.9631V94.9001M26.8197 94.9001H96.9628M83.5531 86.6479H86.6477V28.883H83.5531M83.5531 86.6479H20.6306C19.4912 86.6479 18.5676 85.7243 18.5676 84.5849V30.946C18.5676 29.8066 19.4912 28.883 20.6306 28.883H83.5531M83.5531 86.6479V28.883M96.9454 42.7809L96.3693 43.357C95.7651 43.9613 94.7854 43.9613 94.1811 43.357C93.5769 42.7528 93.5769 41.7731 94.1811 41.1689L94.5975 40.7525M96.9454 42.7809C99.6821 44.2623 103.174 43.8465 105.487 41.5336C107.8 39.2206 108.215 35.729 106.734 32.9923M96.9454 42.7809L106.734 32.9923M94.5975 40.7525C92.4771 37.9242 92.703 33.8943 95.2752 31.3221C97.8474 28.7499 101.877 28.524 104.706 30.6444M94.5975 40.7525L104.706 30.6444M106.734 32.9923L107.31 32.4162C107.914 31.8119 107.914 30.8322 107.31 30.228C106.706 29.6237 105.726 29.6237 105.122 30.228L104.706 30.6444M103.816 85.0731L104.392 85.6492C104.996 86.2535 105.976 86.2535 106.58 85.6492C107.185 85.045 107.185 84.0653 106.58 83.4611L106.164 83.0446M103.816 85.0731C101.079 86.5545 97.5877 86.1387 95.2747 83.8257C92.9618 81.5128 92.546 78.0212 94.0274 75.2845M103.816 85.0731L94.0274 75.2845M106.164 83.0446C108.284 80.2164 108.058 76.1864 105.486 73.6143C102.914 71.0421 98.8841 70.8162 96.0558 72.9366M106.164 83.0446L96.0558 72.9366M94.0274 75.2845L93.4513 74.7083C92.847 74.1041 92.847 73.1244 93.4513 72.5202C94.0555 71.9159 95.0352 71.9159 95.6394 72.5202L96.0558 72.9366" stroke="#C00004" stroke-width="2" stroke-linecap="round"/>
</svg>
